Day 9/Question 3/bcdto2421.vcd
$date
	Fri Dec 26 11:16:44 2025
$end
$version
	Icarus Verilog
$end
$timescale
	1s
$end
$scope module bcdto2421_tb $end
$var wire 4 ! code2421 [3:0] $end
$var reg 4 " bcd [3:0] $end
$scope module dut $end
$var wire 4 # bcd [3:0] $end
$var reg 4 $ code2421 [3:0] $end
$upscope $end
$upscope $end
$enddefinitions $end
$comment Show the parameter values. $end
$dumpall
$end
#0
$dumpvars
b0 $
b0 #
b0 "
b0 !
$end
#10
b1 !
b1 $
b1 "
b1 #
#20
b10 !
b10 $
b10 "
b10 #
#30
b11 !
b11 $
b11 "
b11 #
#40
b100 !
b100 $
b100 "
b100 #
#50
b1011 !
b1011 $
b101 "
b101 #
#60
b1100 !
b1100 $
b110 "
b110 #
#70
b1101 !
b1101 $
b111 "
b111 #
#80
b1110 !
b1110 $
b1000 "
b1000 #
#90
b1111 !
b1111 $
b1001 "
b1001 #
